^C:\USERS\AKROUHAI\SOURCE\REPOS\PROJECTAPP\PROJECTAPP\DEBUG\MATRIX.OBJ|C:\USERS\AKROUHAI\SOURCE\REPOS\PROJECTAPP\PROJECTAPP\DEBUG\MENUAPP.OBJ
/OUT:"C:\USERS\AKROUHAI\SOURCE\REPOS\PROJECTAPP\DEBUG\PROJECTAPP.EXE" /INCREMENTAL /NOLOGO KERNEL32.LIB USER32.LIB GDI32.LIB WINSPOOL.LIB COMDLG32.LIB ADVAPI32.LIB SHELL32.LIB OLE32.LIB OLEAUT32.LIB UUID.LIB ODBC32.LIB ODBCCP32.LIB /MANIFEST /MANIFESTUAC:"level='asInvoker' uiAccess='false'" /manifest:embed /DEBUG:FASTLINK /PDB:"C:\USERS\AKROUHAI\SOURCE\REPOS\PROJECTAPP\DEBUG\PROJECTAPP.PDB" /SUBSYSTEM:CONSOLE /TLBID:1 /DYNAMICBASE /NXCOMPAT /IMPLIB:"C:\USERS\AKROUHAI\SOURCE\REPOS\PROJECTAPP\DEBUG\PROJECTAPP.LIB" /MACHINE:X86 DEBUG\MATRIX.OBJDEBUG\MENUAPP.OBJ
^C:\USERS\AKROUHAI\ONEDRIVE - ELECTROLUX\DESKTOP\HAIFA\TESTPROJECT\PROJECTAPP\DEBUG\MATRIX.OBJ|C:\USERS\AKROUHAI\ONEDRIVE - ELECTROLUX\DESKTOP\HAIFA\TESTPROJECT\PROJECTAPP\DEBUG\MENUAPP.OBJ
/OUT:"C:\USERS\AKROUHAI\ONEDRIVE - ELECTROLUX\DESKTOP\HAIFA\TESTPROJECT\DEBUG\PROJECTAPP.EXE" /INCREMENTAL /NOLOGO KERNEL32.LIB USER32.LIB GDI32.LIB WINSPOOL.LIB COMDLG32.LIB ADVAPI32.LIB SHELL32.LIB OLE32.LIB OLEAUT32.LIB UUID.LIB ODBC32.LIB ODBCCP32.LIB /MANIFEST /MANIFESTUAC:"level='asInvoker' uiAccess='false'" /manifest:embed /DEBUG:FASTLINK /PDB:"C:\USERS\AKROUHAI\ONEDRIVE - ELECTROLUX\DESKTOP\HAIFA\TESTPROJECT\DEBUG\PROJECTAPP.PDB" /SUBSYSTEM:CONSOLE /TLBID:1 /DYNAMICBASE /NXCOMPAT /IMPLIB:"C:\USERS\AKROUHAI\ONEDRIVE - ELECTROLUX\DESKTOP\HAIFA\TESTPROJECT\DEBUG\PROJECTAPP.LIB" /MACHINE:X86 DEBUG\MATRIX.OBJDEBUG\MENUAPP.OBJ
^C:\USERS\AKROUHAI\ONEDRIVE - ELECTROLUX\DESKTOP\HAIFA\HAIFA\TESTPROJECT\PROJECTAPP\DEBUG\MATRIX.OBJ|C:\USERS\AKROUHAI\ONEDRIVE - ELECTROLUX\DESKTOP\HAIFA\HAIFA\TESTPROJECT\PROJECTAPP\DEBUG\MENUAPP.OBJ
/OUT:"C:\USERS\AKROUHAI\ONEDRIVE - ELECTROLUX\DESKTOP\HAIFA\HAIFA\TESTPROJECT\DEBUG\PROJECTAPP.EXE" /INCREMENTAL /NOLOGO KERNEL32.LIB USER32.LIB GDI32.LIB WINSPOOL.LIB COMDLG32.LIB ADVAPI32.LIB SHELL32.LIB OLE32.LIB OLEAUT32.LIB UUID.LIB ODBC32.LIB ODBCCP32.LIB /MANIFEST /MANIFESTUAC:"level='asInvoker' uiAccess='false'" /manifest:embed /DEBUG:FASTLINK /PDB:"C:\USERS\AKROUHAI\ONEDRIVE - ELECTROLUX\DESKTOP\HAIFA\HAIFA\TESTPROJECT\DEBUG\PROJECTAPP.PDB" /SUBSYSTEM:CONSOLE /TLBID:1 /DYNAMICBASE /NXCOMPAT /IMPLIB:"C:\USERS\AKROUHAI\ONEDRIVE - ELECTROLUX\DESKTOP\HAIFA\HAIFA\TESTPROJECT\DEBUG\PROJECTAPP.LIB" /MACHINE:X86 DEBUG\MATRIX.OBJDEBUG\MENUAPP.OBJ
