^C:\USERS\AKROUHAI\SOURCE\REPOS\PROJECTAPP\PROJECTAPP\DEBUG\MATRIX.OBJ|C:\USERS\AKROUHAI\SOURCE\REPOS\PROJECTAPP\PROJECTAPP\DEBUG\MENUAPP.OBJ
C:\USERS\AKROUHAI\SOURCE\REPOS\PROJECTAPP\DEBUG\PROJECTAPP.ILK
C:\USERS\AKROUHAI\SOURCE\REPOS\PROJECTAPP\DEBUG\PROJECTAPP.EXE
C:\USERS\AKROUHAI\SOURCE\REPOS\PROJECTAPP\DEBUG\PROJECTAPP.PDB
^C:\USERS\AKROUHAI\ONEDRIVE - ELECTROLUX\DESKTOP\HAIFA\TESTPROJECT\PROJECTAPP\DEBUG\MATRIX.OBJ|C:\USERS\AKROUHAI\ONEDRIVE - ELECTROLUX\DESKTOP\HAIFA\TESTPROJECT\PROJECTAPP\DEBUG\MENUAPP.OBJ
C:\USERS\AKROUHAI\ONEDRIVE - ELECTROLUX\DESKTOP\HAIFA\TESTPROJECT\DEBUG\PROJECTAPP.ILK
C:\USERS\AKROUHAI\ONEDRIVE - ELECTROLUX\DESKTOP\HAIFA\TESTPROJECT\DEBUG\PROJECTAPP.EXE
C:\USERS\AKROUHAI\ONEDRIVE - ELECTROLUX\DESKTOP\HAIFA\TESTPROJECT\DEBUG\PROJECTAPP.PDB
^C:\USERS\AKROUHAI\ONEDRIVE - ELECTROLUX\DESKTOP\HAIFA\HAIFA\TESTPROJECT\PROJECTAPP\DEBUG\MATRIX.OBJ|C:\USERS\AKROUHAI\ONEDRIVE - ELECTROLUX\DESKTOP\HAIFA\HAIFA\TESTPROJECT\PROJECTAPP\DEBUG\MENUAPP.OBJ
C:\USERS\AKROUHAI\ONEDRIVE - ELECTROLUX\DESKTOP\HAIFA\HAIFA\TESTPROJECT\DEBUG\PROJECTAPP.EXE
C:\USERS\AKROUHAI\ONEDRIVE - ELECTROLUX\DESKTOP\HAIFA\HAIFA\TESTPROJECT\DEBUG\PROJECTAPP.ILK
C:\USERS\AKROUHAI\ONEDRIVE - ELECTROLUX\DESKTOP\HAIFA\HAIFA\TESTPROJECT\DEBUG\PROJECTAPP.PDB
